Crash Course
…
set.seed(555)
data_splits <- initial_split(Hits, 0.85, strata = is_home_run)

train <- training(data_splits)
test <- testing(data_splits)

Exploratory Data Analysis

Filtering rows

  train |>
    filter(is_home_run == 1)

# A tibble: 597 × 33
   bip_id game_date  home_team away_team batter_team batter_name    pitcher_name
    <dbl> <date>     <chr>     <chr>     <chr>       <chr>          <chr>       
 1  26018 2020-09-14 MIA       PHI       PHI         kingery, scott boxberger, …
 2  63561 2020-09-17 TB        BAL       BAL         alberto, hans… richards, t…
 3 115167 2020-09-11 NYY       BAL       NYY         voit, luke     wojciechows…
 4  51861 2020-09-13 TOR       NYM       TOR         gurriel, lour… peterson, d…
 5  53127 2020-08-31 NYM       MIA       NYM         cano, robinson vesia, alex 
 6  61906 2020-08-15 CHC       MIL       CHC         souza, steven  knebel, cor…
 7 111834 2020-08-23 PIT       MIL       MIL         smoak, justin  hartlieb, g…
 8  99107 2020-09-22 TOR       NYY       TOR         biggio, cavan  cole, gerrit
 9  26757 2020-10-07 ATL       MIA       ATL         swanson, dans… lopez, pablo
10  57940 2020-10-02 CHC       MIA       MIA         cooper, garre… darvish, yu 
# ℹ 587 more rows
# ℹ 26 more variables: batter_id <dbl>, pitcher_id <dbl>,
#   is_batter_lefty <dbl>, is_pitcher_lefty <dbl>, bb_type <chr>,
#   bearing <chr>, pitch_name <chr>, park <dbl>, inning <dbl>,
#   outs_when_up <dbl>, balls <dbl>, strikes <dbl>, plate_x <dbl>,
#   plate_z <dbl>, pitch_mph <dbl>, launch_speed <dbl>, launch_angle <dbl>,
#   is_home_run <dbl>, NAME <chr>, Cover <chr>, LF_Dim <dbl>, CF_Dim <dbl>, …

  train |>
    filter(launch_angle > 80)

# A tibble: 40 × 33
   bip_id game_date  home_team away_team batter_team batter_name    pitcher_name
    <dbl> <date>     <chr>     <chr>     <chr>       <chr>          <chr>       
 1  28623 2020-07-29 DET       KC        KC          merrifield, w… garcia, bry…
 2   3380 2020-09-17 SEA       SF        SF          flores, wilmer margevicius…
 3   9861 2020-10-25 TB        LAD       TB          lowe, brandon  kershaw, cl…
 4   4250 2020-09-13 SD        SF        SF          dickerson, al… clevinger, …
 5  23083 2020-09-08 CHC       CIN       CHC         contreras, wi… mahle, tyler
 6  83665 2020-08-15 TOR       TB        TB          zunino, mike   anderson, c…
 7  91173 2020-10-07 NYY       TB        NYY         ford, mike     castillo, d…
 8   9690 2020-09-19 COL       LAD       COL         story, trevor  kershaw, cl…
 9  89373 2020-07-30 BAL       NYY       BAL         hays, austin   ottavino, a…
10  25313 2020-08-28 MIL       PIT       PIT         newman, kevin  burnes, cor…
# ℹ 30 more rows
# ℹ 26 more variables: batter_id <dbl>, pitcher_id <dbl>,
#   is_batter_lefty <dbl>, is_pitcher_lefty <dbl>, bb_type <chr>,
#   bearing <chr>, pitch_name <chr>, park <dbl>, inning <dbl>,
#   outs_when_up <dbl>, balls <dbl>, strikes <dbl>, plate_x <dbl>,
#   plate_z <dbl>, pitch_mph <dbl>, launch_speed <dbl>, launch_angle <dbl>,
#   is_home_run <dbl>, NAME <chr>, Cover <chr>, LF_Dim <dbl>, CF_Dim <dbl>, …

  train |>
    filter(str_detect(NAME, "Fenway"))

# A tibble: 374 × 33
   bip_id game_date  home_team away_team batter_team batter_name    pitcher_name
    <dbl> <date>     <chr>     <chr>     <chr>       <chr>          <chr>       
 1  72059 2020-07-25 BOS       BAL       BOS         peraza, jose   cobb, alex  
 2 116705 2020-09-01 BOS       ATL       ATL         freeman, fred… hart, kyle  
 3  81855 2020-07-26 BOS       BAL       BAL         davis, chris   weber, ryan 
 4 111113 2020-08-29 BOS       WSH       WSH         eaton, adam    brice, aust…
 5 101052 2020-09-20 BOS       NYY       BOS         lin, tzu-wei   cessa, luis 
 6  99863 2020-09-18 BOS       NYY       BOS         bogaerts, xan… montgomery,…
 7  61092 2020-08-12 BOS       TB        BOS         vazquez, chri… snell, blake
 8 110895 2020-07-27 BOS       NYM       NYM         alonso, pete   osich, josh 
 9  88345 2020-08-13 BOS       TB        TB          díaz, yandy    valdez, phi…
10  21273 2020-08-18 BOS       PHI       BOS         bogaerts, xan… eflin, zach 
# ℹ 364 more rows
# ℹ 26 more variables: batter_id <dbl>, pitcher_id <dbl>,
#   is_batter_lefty <dbl>, is_pitcher_lefty <dbl>, bb_type <chr>,
#   bearing <chr>, pitch_name <chr>, park <dbl>, inning <dbl>,
#   outs_when_up <dbl>, balls <dbl>, strikes <dbl>, plate_x <dbl>,
#   plate_z <dbl>, pitch_mph <dbl>, launch_speed <dbl>, launch_angle <dbl>,
#   is_home_run <dbl>, NAME <chr>, Cover <chr>, LF_Dim <dbl>, CF_Dim <dbl>, …

Selecting just a few columns

  train |>
    select(launch_speed, launch_angle)

# A tibble: 11,050 × 2
   launch_speed launch_angle
          <dbl>        <dbl>
 1         58.5          -47
 2         NA             -8
 3         71.9           NA
 4         71.5           10
 5         97.2           23
 6         NA             54
 7         86.5           NA
 8         92.7           17
 9         83.4           14
10        106.            18
# ℹ 11,040 more rows

Building new variables from old ones (Feature Engineering)

train |>
  mutate(fast_pitch = ifelse(pitch_mph > 100, "yes", "no"))

# A tibble: 11,050 × 34
   bip_id game_date  home_team away_team batter_team batter_name    pitcher_name
    <dbl> <date>     <chr>     <chr>     <chr>       <chr>          <chr>       
 1  61093 2020-09-11 TB        BOS       BOS         bogaerts, xan… snell, blake
 2 117924 2020-08-31 CIN       STL       STL         edman, tommy   lorenzen, m…
 3  84178 2020-09-12 WSH       ATL       WSH         soto, juan     anderson, i…
 4  25265 2020-09-04 CLE       MIL       CLE         lindor, franc… burnes, cor…
 5 117768 2020-08-25 STL       KC        STL         wong, kolten   newberry, j…
 6  54097 2020-08-23 STL       CIN       CIN         ervin, phil    reyes, alex 
 7  58175 2020-09-25 CWS       CHC       CWS         grandal, yasm… darvish, yu 
 8 118766 2020-07-26 CWS       MIN       MIN         cruz, nelson   gonzalez, g…
 9  11349 2020-10-11 TB        HOU       TB          zunino, mike   valdez, fra…
10  61080 2020-09-11 TB        BOS       BOS         bradley, jack… snell, blake
# ℹ 11,040 more rows
# ℹ 27 more variables: batter_id <dbl>, pitcher_id <dbl>,
#   is_batter_lefty <dbl>, is_pitcher_lefty <dbl>, bb_type <chr>,
#   bearing <chr>, pitch_name <chr>, park <dbl>, inning <dbl>,
#   outs_when_up <dbl>, balls <dbl>, strikes <dbl>, plate_x <dbl>,
#   plate_z <dbl>, pitch_mph <dbl>, launch_speed <dbl>, launch_angle <dbl>,
#   is_home_run <dbl>, NAME <chr>, Cover <chr>, LF_Dim <dbl>, CF_Dim <dbl>, …
