Spaceship Titanic Investigation
…
tictoc::toc()

79.64 sec elapsed

Code

doParallel::stopImplicitCluster()
unregister()

svm_bayes_results |>
  collect_metrics() |>
  arrange(-mean)

# A tibble: 22 × 8
      cost .metric .estimator  mean     n std_err .config               .iter
     <dbl> <chr>   <chr>      <dbl> <int>   <dbl> <chr>                 <int>
 1 13.0    recall  binary     0.639    10 0.00895 Iter2                     2
 2  1.34   recall  binary     0.639    10 0.00877 Preprocessor1_Model01     0
 3  5.53   recall  binary     0.639    10 0.00877 Preprocessor1_Model02     0
 4  0.262  recall  binary     0.639    10 0.00877 Preprocessor1_Model05     0
 5 18.1    recall  binary     0.639    10 0.00877 Preprocessor1_Model06     0
 6  1.81   recall  binary     0.639    10 0.00877 Preprocessor1_Model08     0
 7  0.320  recall  binary     0.639    10 0.00877 Iter1                     1
 8  0.0889 recall  binary     0.639    10 0.00877 Iter7                     7
 9 20.4    recall  binary     0.639    10 0.00877 Iter8                     8
10  1.09   recall  binary     0.639    10 0.00877 Iter11                   11
# ℹ 12 more rows
…
