Student Performance Investigation
…
Code

p1

# A tibble: 1,912 × 15
   StudentID   Age Gender Ethnicity ParentalEducation StudyTimeWeekly Absences
       <dbl> <dbl>  <dbl>     <dbl>             <dbl>           <dbl>    <dbl>
 1      1006    18      0         0                 1            8.19        0
 2      1039    15      1         1                 1            2.95        3
 3      1045    18      1         0                 1           18.9         1
 4      1066    16      0         1                 1           18.1         6
 5      1111    18      0         1                 1           10.9         4
 6      1112    17      1         3                 0            5.67        2
 7      1113    18      1         0                 1           19.0         2
 8      1120    15      0         2                 1           19.6         3
 9      1124    17      1         3                 1           12.8         4
10      1125    15      0         0                 2            2.58        1
# ℹ 1,902 more rows
# ℹ 8 more variables: Tutoring <dbl>, ParentalSupport <dbl>,
#   Extracurricular <fct>, Sports <dbl>, Music <dbl>, Volunteering <dbl>,
#   GPA <dbl>, GradeClass <fct>

Code

p2

# A tibble: 1,912 × 15
   StudentID   Age Gender Ethnicity ParentalEducation StudyTimeWeekly Absences
       <dbl> <dbl>  <dbl>     <dbl> <fct>                       <dbl>    <dbl>
 1      1006    18      0         0 High School                  8.19        0
 2      1039    15      1         1 High School                  2.95        3
 3      1045    18      1         0 High School                 18.9         1
 4      1066    16      0         1 High School                 18.1         6
 5      1111    18      0         1 High School                 10.9         4
 6      1112    17      1         3 None                         5.67        2
 7      1113    18      1         0 High School                 19.0         2
 8      1120    15      0         2 High School                 19.6         3
 9      1124    17      1         3 High School                 12.8         4
10      1125    15      0         0 Some College                 2.58        1
# ℹ 1,902 more rows
# ℹ 8 more variables: Tutoring <dbl>, ParentalSupport <dbl>,
#   Extracurricular <dbl>, Sports <dbl>, Music <dbl>, Volunteering <dbl>,
#   GPA <dbl>, GradeClass <fct>

Code

p3

# A tibble: 1,912 × 15
   StudentID   Age Gender Ethnicity ParentalEducation StudyTimeWeekly Absences
       <dbl> <dbl>  <dbl>     <dbl>             <dbl>           <dbl>    <dbl>
 1      1006    18      0         0                 1            8.19        0
 2      1039    15      1         1                 1            2.95        3
 3      1045    18      1         0                 1           18.9         1
 4      1066    16      0         1                 1           18.1         6
 5      1111    18      0         1                 1           10.9         4
 6      1112    17      1         3                 0            5.67        2
 7      1113    18      1         0                 1           19.0         2
 8      1120    15      0         2                 1           19.6         3
 9      1124    17      1         3                 1           12.8         4
10      1125    15      0         0                 2            2.58        1
# ℹ 1,902 more rows
# ℹ 8 more variables: Tutoring <dbl>, ParentalSupport <fct>,
#   Extracurricular <dbl>, Sports <dbl>, Music <dbl>, Volunteering <dbl>,
#   GPA <dbl>, GradeClass <fct>

Code

p4

# A tibble: 1,912 × 15
   StudentID   Age Gender Ethnicity ParentalEducation StudyTimeWeekly Absences
       <dbl> <dbl>  <dbl>     <dbl>             <dbl>           <dbl>    <dbl>
 1      1006    18      0         0                 1            8.19        0
 2      1039    15      1         1                 1            2.95        3
 3      1045    18      1         0                 1           18.9         1
 4      1066    16      0         1                 1           18.1         6
 5      1111    18      0         1                 1           10.9         4
 6      1112    17      1         3                 0            5.67        2
 7      1113    18      1         0                 1           19.0         2
 8      1120    15      0         2                 1           19.6         3
 9      1124    17      1         3                 1           12.8         4
10      1125    15      0         0                 2            2.58        1
# ℹ 1,902 more rows
# ℹ 8 more variables: Tutoring <fct>, ParentalSupport <dbl>,
#   Extracurricular <dbl>, Sports <dbl>, Music <dbl>, Volunteering <dbl>,
#   GPA <dbl>, GradeClass <fct>
…
There were issues with some computations:

  - Warning(s) x1: While computing multiclass `precision()`, some levels had no pred...
  - Warning(s) x1: While computing multiclass `precision()`, some levels had no pred...
  - Warning(s) x1: While computing multiclass `precision()`, some levels had no pred...
  - Warning(s) x1: While computing multiclass `precision()`, some levels had no pred...

Run `show_notes(.Last.tune.result)` for more information.

Code

collect_metrics(regular_res)

# A tibble: 50 × 8
    mtry min_n .metric     .estimator  mean     n std_err .config              
   <int> <int> <chr>       <chr>      <dbl> <int>   <dbl> <chr>                
 1     5    20 f_meas      macro      0.561    10  0.0186 Preprocessor1_Model01
 2     5    20 mn_log_loss multiclass 0.651    10  0.0118 Preprocessor1_Model01
 3     6    20 f_meas      macro      0.567    10  0.0233 Preprocessor1_Model02
 4     6    20 mn_log_loss multiclass 0.634    10  0.0125 Preprocessor1_Model02
 5     7    20 f_meas      macro      0.570    10  0.0217 Preprocessor1_Model03
 6     7    20 mn_log_loss multiclass 0.626    10  0.0126 Preprocessor1_Model03
 7     8    20 f_meas      macro      0.560    10  0.0161 Preprocessor1_Model04
 8     8    20 mn_log_loss multiclass 0.622    10  0.0128 Preprocessor1_Model04
 9    10    20 f_meas      macro      0.571    10  0.0221 Preprocessor1_Model05
10    10    20 mn_log_loss multiclass 0.623    10  0.0133 Preprocessor1_Model05
# ℹ 40 more rows
…
Warning: `grid_latin_hypercube()` was deprecated in dials 1.3.0.
ℹ Please use `grid_space_filling()` instead.

Code

xgb_grid

# A tibble: 30 × 7
   tree_depth min_n loss_reduction sample_size  mtry learn_rate scale_pos_weight
        <int> <int>          <dbl>       <dbl> <int>      <dbl>            <dbl>
 1          8    16       9.05e- 5       0.369    12    6.87e-4            0.805
 2         15    25       1.44e-10       0.653     5    3.98e-3            0.936
 3          3    35       2.78e- 3       0.238    14    1.75e-6            0.877
 4          7     4       6.67e- 8       0.405     9    1.18e-6            1.19 
 5          4    20       3.28e- 7       0.637    14    2.21e-4            0.982
 6         10    22       8.13e- 6       0.284    10    4.68e-6            1.03 
 7          9    32       3.42e- 5       0.276    12    9.05e-9            1.04 
 8         13    34       1.31e+ 0       0.380     6    5.44e-7            1.11 
 9          6    29       9.49e- 2       0.518     5    1.52e-4            0.863
10          6    30       3.57e+ 0       0.904    11    1.80e-9            1.08 
# ℹ 20 more rows
…
Run `show_notes(.Last.tune.result)` for more information.

Let’s collect our metrics

Code

collect_metrics(xgb_res)

# A tibble: 60 × 13
    mtry min_n tree_depth learn_rate loss_reduction sample_size scale_pos_weight
   <int> <int>      <int>      <dbl>          <dbl>       <dbl>            <dbl>
 1    12    16          8 0.000687         9.05e- 5       0.369            0.805
 2    12    16          8 0.000687         9.05e- 5       0.369            0.805
 3     5    25         15 0.00398          1.44e-10       0.653            0.936
 4     5    25         15 0.00398          1.44e-10       0.653            0.936
 5    14    35          3 0.00000175       2.78e- 3       0.238            0.877
 6    14    35          3 0.00000175       2.78e- 3       0.238            0.877
 7     9     4          7 0.00000118       6.67e- 8       0.405            1.19 
 8     9     4          7 0.00000118       6.67e- 8       0.405            1.19 
 9    14    20          4 0.000221         3.28e- 7       0.637            0.982
10    14    20          4 0.000221         3.28e- 7       0.637            0.982
# ℹ 50 more rows
# ℹ 6 more variables: .metric <chr>, .estimator <chr>, mean <dbl>, n <int>,
#   std_err <dbl>, .config <chr>
…
